<?xml version="1.0" encoding="UTF-8"?>
<svg width="10px" height="10px" viewBox="0 0 10 10" version="1.1" xmlns="http://www.w3.org/2000/svg" xmlns:xlink="http://www.w3.org/1999/xlink">
    <defs></defs>
    <g id="2.00-Users" stroke="none" stroke-width="1" fill="none" fill-rule="evenodd">
        <g id="2.00-Users---2-Delete-User-Prompt" transform="translate(-963.000000, -408.000000)">
            <g id="Popup" transform="translate(440.000000, 378.000000)">
                <g id="Head" transform="translate(5.000000, 0.000000)">
                    <g id="icon_cross" transform="translate(514.000000, 26.000000)">
                        <polygon id="Stroke-1" stroke-opacity="0.00784313771" stroke="#000000" stroke-width="1.33333335e-11" points="0 0 18 0 18 18 0 18"></polygon>
                        <path d="M13.740881,12.5206526 C14.086371,12.8664744 14.086371,13.4044177 13.740881,13.7502396 C13.5681361,13.9231505 13.3570039,14 13.1266783,14 C12.8963526,14 12.685219,13.9231505 12.5124755,13.7502396 L8.99999936,10.2343894 L5.48752396,13.7502381 C5.31477934,13.9231491 5.10364686,13.9999985 4.87332046,13.9999985 C4.64299404,13.9999985 4.43186192,13.9231491 4.25911693,13.7502381 C3.91362769,13.4044163 3.91362769,12.8664729 4.25911693,12.5206511 L7.77159231,9.00480236 L4.25911693,5.48895288 C3.91362769,5.14313176 3.91362769,4.60518733 4.25911693,4.25936621 C4.60460618,3.91354509 5.14203436,3.91354509 5.4875236,4.25936621 L8.99999936,7.7752153 L12.5124755,4.25936584 C12.8579655,3.91354472 13.3953925,3.91354472 13.7408825,4.25936584 C14.0863725,4.60518696 14.0863725,5.14313139 13.7408825,5.48895251 L10.2284064,9.00480236 L13.740881,12.5206526 Z" id="Fill-2" fill="#F44336" opacity="0.5"></path>
                    </g>
                </g>
            </g>
        </g>
    </g>
</svg>